-------------------------------------------------------------------------------
Test set: com.example.binardemocicd.BinarDemoCicdApplicationTests
-------------------------------------------------------------------------------
Tests run: 1, Failures: 0, Errors: 1, Skipped: 0, Time elapsed: 2.717 s <<< FAILURE! - in com.example.binardemocicd.BinarDemoCicdApplicationTests
contextLoads  Time elapsed: 0.004 s  <<< ERROR!
java.lang.IllegalStateException: Failed to load ApplicationContext
Caused by: org.springframework.beans.factory.UnsatisfiedDependencyException: Error creating bean with name 'org.springframework.boot.autoconfigure.web.servlet.WebMvcAutoConfiguration$EnableWebMvcConfiguration': Unsatisfied dependency expressed through method 'setConfigurers' parameter 0; nested exception is org.springframework.beans.factory.UnsatisfiedDependencyException: Error creating bean with name 'metricsWebMvcConfigurer' defined in class path resource [org/springframework/boot/actuate/autoconfigure/metrics/web/servlet/WebMvcMetricsAutoConfiguration.class]: Unsatisfied dependency expressed through method 'metricsWebMvcConfigurer' parameter 0; nested exception is org.springframework.beans.factory.BeanCreationException: Error creating bean with name 'simpleMeterRegistry' defined in class path resource [org/springframework/boot/actuate/autoconfigure/metrics/export/simple/SimpleMetricsExportAutoConfiguration.class]: Initialization of bean failed; nested exception is org.springframework.beans.factory.BeanCreationException: Error creating bean with name 'processorMetrics' defined in class path resource [org/springframework/boot/actuate/autoconfigure/metrics/SystemMetricsAutoConfiguration.class]: Bean instantiation via factory method failed; nested exception is org.springframework.beans.BeanInstantiationException: Failed to instantiate [io.micrometer.core.instrument.binder.system.ProcessorMetrics]: Factory method 'processorMetrics' threw exception; nested exception is java.lang.NullPointerException: Cannot invoke "jdk.internal.platform.CgroupInfo.getMountPoint()" because "anyController" is null
Caused by: org.springframework.beans.factory.UnsatisfiedDependencyException: Error creating bean with name 'metricsWebMvcConfigurer' defined in class path resource [org/springframework/boot/actuate/autoconfigure/metrics/web/servlet/WebMvcMetricsAutoConfiguration.class]: Unsatisfied dependency expressed through method 'metricsWebMvcConfigurer' parameter 0; nested exception is org.springframework.beans.factory.BeanCreationException: Error creating bean with name 'simpleMeterRegistry' defined in class path resource [org/springframework/boot/actuate/autoconfigure/metrics/export/simple/SimpleMetricsExportAutoConfiguration.class]: Initialization of bean failed; nested exception is org.springframework.beans.factory.BeanCreationException: Error creating bean with name 'processorMetrics' defined in class path resource [org/springframework/boot/actuate/autoconfigure/metrics/SystemMetricsAutoConfiguration.class]: Bean instantiation via factory method failed; nested exception is org.springframework.beans.BeanInstantiationException: Failed to instantiate [io.micrometer.core.instrument.binder.system.ProcessorMetrics]: Factory method 'processorMetrics' threw exception; nested exception is java.lang.NullPointerException: Cannot invoke "jdk.internal.platform.CgroupInfo.getMountPoint()" because "anyController" is null
Caused by: org.springframework.beans.factory.BeanCreationException: Error creating bean with name 'simpleMeterRegistry' defined in class path resource [org/springframework/boot/actuate/autoconfigure/metrics/export/simple/SimpleMetricsExportAutoConfiguration.class]: Initialization of bean failed; nested exception is org.springframework.beans.factory.BeanCreationException: Error creating bean with name 'processorMetrics' defined in class path resource [org/springframework/boot/actuate/autoconfigure/metrics/SystemMetricsAutoConfiguration.class]: Bean instantiation via factory method failed; nested exception is org.springframework.beans.BeanInstantiationException: Failed to instantiate [io.micrometer.core.instrument.binder.system.ProcessorMetrics]: Factory method 'processorMetrics' threw exception; nested exception is java.lang.NullPointerException: Cannot invoke "jdk.internal.platform.CgroupInfo.getMountPoint()" because "anyController" is null
Caused by: org.springframework.beans.factory.BeanCreationException: Error creating bean with name 'processorMetrics' defined in class path resource [org/springframework/boot/actuate/autoconfigure/metrics/SystemMetricsAutoConfiguration.class]: Bean instantiation via factory method failed; nested exception is org.springframework.beans.BeanInstantiationException: Failed to instantiate [io.micrometer.core.instrument.binder.system.ProcessorMetrics]: Factory method 'processorMetrics' threw exception; nested exception is java.lang.NullPointerException: Cannot invoke "jdk.internal.platform.CgroupInfo.getMountPoint()" because "anyController" is null
Caused by: org.springframework.beans.BeanInstantiationException: Failed to instantiate [io.micrometer.core.instrument.binder.system.ProcessorMetrics]: Factory method 'processorMetrics' threw exception; nested exception is java.lang.NullPointerException: Cannot invoke "jdk.internal.platform.CgroupInfo.getMountPoint()" because "anyController" is null
Caused by: java.lang.NullPointerException: Cannot invoke "jdk.internal.platform.CgroupInfo.getMountPoint()" because "anyController" is null

